{{
"Fill": "{fill}",
"Date": "{date}",
"Luminometer": "{luminometer}",
"AnalysisDir": "{analysisdir}",
"FrameworkDir": "{frameworkdir}",
"CorrLater" : ["noCorr", "LengthScale", "Ghosts", "Satellites", "BeamBeam", "DynamicBeta","Background"],
"Corr" : {corrs},
"Comment": "Output of following step goes to <AnalysisDir>/cond", 
"makeScanFile": {makeScanFile},
"Comment": "Output of following step goes to <AnalysisDir>/LuminometerData",
"makeRateFile": {makeRateFile},
"Comment": "Output of following step goes to <AnalysisDir>/cond", 
"makeBeamCurrentFile": {makeBeamCurrentFile},
"Comment": "Output of following step goes to <AnalysisDir>/corr",
"makeBeamBeamFile": {makeBeamBeamFile},
"Comment": "Output of following step goes to <AnalysisDir>/corr",
"makeDynamicBetaFile": {makeDynamicBetaFile},
"Comment": "Output of following step goes to <AnalysisDir>/corr",
"makeGhostsFile": false,
"Comment": "Output of following step goes to <AnalysisDir>/corr",
"makeSatellitesFile": false,
"Comment": "Output of following step goes to <AnalysisDir>/corr", 
"makeLengthScaleFile": {makeLengthScaleFile},
"Comment": "Output of following step goes to <AnalysisDir>/corr",
"makeOrbitDriftFile": {makeOrbitDriftFile},
"Comment": "Output of following step goes to <AnalysisDir>/corr", 
"makeBackgroundFile": {makeBackgroundFile},
"Comment": "Output of following step goes to <AnalysisDir>/<Luminometer>/graphs",
"makeGraphsFile": {makeGraphsFile},
"Comment": "Output of following step goes to <AnalysisDir>/<Luminometer>/graphs",
"makeGraphs2D": false,
"Comment": "Output of following step goes to <AnalysisDir>/<Luminometer>/results/<Corr>", 
"runVdmFitter": {runVdmFitter},
"Comment": "Output of following step goes to <AnalysisDir>/<Luminometer>/results/<Corr>", 
"calculateCalibrationConstant": true,
"calculateEmittance": true,
"MakePDF": {makepdf},
"MakeLogs": {makelogs},
"makeScanFileConfig":
    {{
    "InputCentralPath": "{central}",		
    "InputDIPFile" : "{dip}",
        "ScanNames" : {scannames},
        "Comment" : "Since X,Y scans are automatically differentiated, a time window can include an X and a Y scan, will still work, timestamp in UTC", 
        "ScanTimeWindows" : {timewindows},
    "Comment" : "A few parameters that are not in our current DIP file, but should be available eventually",
    "Comment" : "betaStar in m, angle in microrad",
    "BetaStar" : {bstar},
    "Angle" : {angle},
    "Offset" : {offsets},
    "ParticleTypeB1" : "proton",
    "ParticleTypeB2" : "proton",
    "Comment": "Beam energies in GeV", 
    "EnergyB1" : {beamenergy},
    "EnergyB2" : {beamenergy},
    "OutputSubDir" : "cond",
    "MuScan":{muscan}
    }},
"makeRateFileConfig":
    {{	
    "Comment": "The following directories are relative to <AnalysisDir>",
    "InputScanFile": "cond/Scan_{fill}.json",
    "InputBeamCurrentFile" : "cond/BeamCurrents_{fill}.json",
    "InputLumiDir" : "{central}",
    "RateTable": "{ratetable}",
    "OutputSubDir": "LuminometerData",
    "Comment": "The following items are for PCC and VTX rate files",
    "InputPCCFiles_vdm": ["/brildata/vdmreprocess17/inputPCC/merged.root"],
    "InputPCCFiles_muscan": ["/brildata/vdmreprocess18/inputPCC/Fill7320.root"],
    "PCCTreeName": "pccminitree",
    "PCC_BCID_vdm":[265,865,1780,2192,3380],
    "PCC_BCID_muscan":[574, 575, 576, 577, 578, 579, 580, 581, 582, 583, 584, 585, 586, 587, 588, 589, 590, 591, 592, 593, 594, 595, 596, 597, 598, 599, 600, 601, 602, 603, 604, 605, 606, 607, 608, 609, 610, 611, 612, 613, 614, 615, 616, 617, 618, 619, 620, 621],
    "addScanInfo": true,
    "Comment": "The following items are input files for RAMSES",
    "InputRAMSES5514Files": ["/brildata/vdmreprocess18/inputRAMSES/PMIL5514_DoseMeas_2018_half1.csv", "/brildata/vdmreprocess18/inputRAMSES/PMIL5514_DoseMeas_2018_half2.csv"],
    "InputRAMSES5515Files": ["/brildata/vdmreprocess18/inputRAMSES/PMIL5515_DoseMeas_2018_half1.csv", "/brildata/vdmreprocess18/inputRAMSES/PMIL5515_DoseMeas_2018_half2.csv"],
    "MuScan":{muscan},
    "FOM":{fom},
    "FOM_Data": "{frameworkdir}/FOM/FOM_2018.json"
    }},
"makeBeamCurrentFileConfig":
    {{
    "InputCentralPath": "{central}",	
    "Comment": "Input scan file in <AnalysisDir>/<InputScanFile>",
    "InputScanFile" : "cond/Scan_{fill}.json",
    "OutputSubDir" : "cond",
    "CalibrateFBCTtoDCCT" : true
    }},
"makeBeamBeamFileConfig":
    {{
    "Comment": "Input scan info file is <AnalysisDir>/<InputScanFile>",
    "InputScanFile" : "cond/Scan_{fill}.json",
    "Comment": "Input beam currents file is <AnalysisDir>/<InputBeamCurrentFile>",
    "InputBeamCurrentFile" : "cond/BeamCurrents_{fill}.json",
    "Comment": "Input luminometer data in <AnalysisDir>/<InputLuminometerData>",
    "FOM":{fom},
    "FOM_InputCapSigmaFile" : "{bbsource}/FOM_{fit}_FitResults.pkl",
    "FOM_InputLuminometerData" : "LuminometerData/FOM_Rates_{luminometer}_{fill}.json",
    "InputLuminometerData" : "LuminometerData/Rates_{luminometer}_{fill}.json",
    "Comment": "Input CapSigmas in <AnalysisDir>/<Luminometer>/results",
    "InputCapSigmaFile" : "{bbsource}/{fit}_FitResults.pkl",
    "Scanpairs" : {scanpairs},
    "Comment": "This is relative to <AnalysisDir>",
    "OutputSubDir": "corr"
    }},
"makeDynamicBetaFileConfig":
    {{
    "Comment": "Input scan info file is <AnalysisDir>/<InputScanFile>",
    "InputScanFile" : "cond/Scan_{fill}.json",
    "Comment": "Input beam currents file is <AnalysisDir>/<InputBeamCurrentFile>",
    "InputBeamCurrentFile" : "cond/BeamCurrents_{fill}.json",
    "Comment": "Input luminometer data in <AnalysisDir>/<InputLuminometerData>",
    "FOM":{fom},
    "FOM_InputCapSigmaFile" : "{bbsource}/FOM_{fit}_FitResults.pkl",
    "FOM_InputLuminometerData" : "LuminometerData/FOM_Rates_{luminometer}_{fill}.json",
    "FOM_InputBeamBeamFile" : "corr/FOM_BeamBeam_{luminometer}_{fill}.json",
    "InputLuminometerData" : "LuminometerData/Rates_{luminometer}_{fill}.json",
    "Comment": "Input CapSigmas in <AnalysisDir>/<Luminometer>/results",
    "InputCapSigmaFile" : "{bbsource}/{fit}_FitResults.pkl",
    "Comment": "Input BeamBeam in <AnalysisDir>/corr",
    "InputBeamBeamFile" : "corr/BeamBeam_{luminometer}_{fill}.json",
    "Scanpairs" : {scanpairs},
    "Comment": "This is relative to <AnalysisDir>",
    "OutputSubDir": "corr"
    }},
"makeGhostsFileConfig":
    {{
    "Comment" : "Where to find the correction factors in json format",
    "InputDataDir" : "dataPrep_corr/corrData",
    "Comment": "This is relative to <AnalysisDir>",
    "OutputSubDir": "corr"
    }},
"makeSatellitesFileConfig":
    {{
    "Comment" : "Where to find the correction factors in json format",
    "InputDataDir" : "dataPrep_corr/corrData",
    "Comment": "This is relative to <AnalysisDir>",
    "OutputSubDir": "corr"
    }},
"makeLengthScaleFileConfig":
    {{
    "Comment": "Length scale scan fill",
    "FillLS": "{fill}",	
    "Comment" : "Where to find the correction factors in json format",
    "InputDataDir" : "dataPrep_corr/corrData",
    "Comment": "This is relative to <AnalysisDir>",
    "OutputSubDir": "corr"
    }},
"makeOrbitDriftFileConfig":
    {{
    "Comment" : "Where to find the correction factors in json format",
    "InputDataDir" : "dataPrep_corr/corrData",
    "Comment" : "Type of the orbit drifts file (DOROS / arcBPM / arcBPM_m_DOROS / arcBPM_DOROS_ave)",
    "OrbitDriftType" : "arcBPM_DOROS_ave",
    "Comment": "This is relative to <AnalysisDir>",
    "OutputSubDir": "corr"
    }},
"makeGraphsFileConfig":
    {{
    "Comment": "Input scan file in <AnalysisDir>/<InputScanFile>",
    "InputScanFile" : "cond/Scan_{fill}.json",
    "Comment": "Input beam currents file in <AnalysisDir>/<InputBeamCurrentFile>",
    "InputBeamCurrentFile" : "cond/BeamCurrents_{fill}.json",
    "Comment": "Input luminometer data in <AnalysisDir>/<InputLuminometerData>",
    "FOM":{fom},
    "FOM_InputLuminometerData" : "LuminometerData/FOM_Rates_{luminometer}_{fill}.json",
    "InputLuminometerData" : "LuminometerData/Rates_{luminometer}_{fill}.json",
    "OutputSubDir" : "graphs",
    "MakePDF": {makepdf}
    }},
"makeGraphs2DConfig":
    {{
    "Comment": "Defines each X/Y pair for which to make 2D graphs", 
    "Scanpairs" : {scanpairs},
    "Comment": "Input/output directory is <AnalysisDir>/<Luminometer>/graphs",
    "InOutSubDir": "graphs"
    }},
"vdmFitterConfig":
     {{
     "Comment": "Input graphs file in <AnalysisDir>/<Luminometer>/graphs",
     "FOM_InputGraphsFile" : "graphs/FOM_graphs_{fill}_{corr}.json",
     "InputGraphsFile" : "graphs/graphs_{fill}_{corr}.json",
     "FitName" : "{fit}",
     "FitConfigFile" : "fits/{fit}_Config.json",
     "ScanNames" : {scannames},
     "MinuitFile" : "{fit}_{corr}_Minuit"
     }},
"calculateCalibrationConstantConfig":
    {{
    "Fill" : "{fill}",
    "AnalysisDir" : "{analysisdir}",
    "Luminometer": "{luminometer}",
    "Corr" : {corrs},
    "Comment": "Input fit results file in <AnalysisDir>/<Luminometer>/results/<Corr>", 
    "FOM":{fom},
    "FOM_InputFitResultsFile" : "FOM_{fit}_FitResults.pkl",
    "InputFitResultsFile" : "{fit}_FitResults.pkl",
    "LuminometerSettings":
        {{
        "LuminometerName": "{luminometer}",
        "Comment": "defaults to settings in luminometer.py", 
        "Comment": "needs to be set for non-default settings or for new luminometer",
        "LuminometerDescription": "default",
        "WhatIsMeasured": "default",
        "NormalizationGraphs": "default",
        "OldNormAvailable": "false"
        }},
    "Comment": "Total inelastic cross section in microbarn, for pp at 8TeV",
    "Total_inel_Xsec": 72700, 
    "Comment": "Use negative number to make clear that no old normalization is available",
    "Comment": "For low energy pp: 10.2; for pp at 8TeV, as determined in April 2012 scan: 6.36",
    "Comment": "For pPb, as determined in Sep 2012 pilot run, taking into account that Pb ion is stripped of all its 82 electrons: 6.36/115.8*82", 
    "OldNormalization": 10.2, 
    "FormulaToUse": "1D-Gaussian-like",
    "Scanpairs" : {scanpairs}
    }},
"calculateEmittanceConfig":
    {{
    "Filename":"{filename1}",
    "Filename2":"{filename2}",
    "Energy" : {beamenergy},
    "BetaStar" : {bstar},
    "Angle" : {angle}
    }},
"makeBackgroundFileConfig":
    {{
    "RateTable": "{ratetable}",
    "Filename":"{filename1}",
    "Filename2":"{filename2}",
    "FixedBackground":"{fixed}",
    "SuperSeparation":
	{{
	"pcclumi":[4.41E-01, 4.49E-02],
	"hfoclumi":[2.46E-05, 1.56E-06]
	}},
    "SuperSeparation_6868":
	{{
	"pltlumizero":[3.3e-06, 9.0e-07], 
	"hfoclumi":[3.0e-05, 3.0e-06], 
	"hfetlumi":[0, 0],
	"bcm1fsilumi":[3.0e-06, 8.0e-07], 
	"bcm1fpcvdlumi":[5.0e-06, 1.0e-06], 
	"pcclumi":[0.169, 0.011],
	"vtxlumi":[0, 0]
	}},
    "SuperSeparation_6847":
        {{
	"pltlumizero":[6.10E-06, 2.70E-06],
        "hfoclumi":[1.05E-04, 7.00E-06],
	"hfetlumi":[2.60E-05, 1.48E-06],
        "bcm1fpcvdlumi":[8.00E-06, 5.30E-07],
        "bcm1fsilumi":[5.30E-06,4.00E-07],
        "pcclumi":[0.297027, 0.0386764]
        }}
    }}
}}
