{
"Names": ["emX1_Y1", "emX2_Y2", "X1", "Y1", "X2", "Y2", "BIX1", "BIY1", "emX3_Y3", "BIX3", "BIY3", "BIX4", "BIY4", "X3", "Y3", "X4", "Y4", "X5", "Y5", "LX1", "LY1", "NBIY1", "NBIX1", "NBIY2", "NBIX2", "X6", "Y6", "emX4_Y4", "emX5_Y5"],
"TimeWindows": [[1530352527, 1530352822, 1530352985],[1530356468, 1530356863, 1530356927],[1530358114, 1530358592, 1530359071],[1530359555, 1530360037, 1530360519],[1530361092, 1530362214, 1530362052],[1530362587, 1530363710, 1530363551],[1530364240, 1530364780, 1530365314],[1530365656, 1530366202, 1530366748],[1530396834, 1530397117, 1530397271],[1530397734, 1530398274, 1530398808],[1530399225, 1530399770, 1530400315],[1530400842, 1530401388, 1530401925],[1530402405, 1530402943, 1530403483],[1530403995, 1530405110, 1530404952],[1530405277, 1530406405, 1530406240],[1530406839, 1530407317, 1530407798],[1530408401, 1530408880, 1530409365],[1530409906, 1530410386, 1530410867],[1530411064, 1530411544, 1530412028],[1530413316, 1530414585, 1530414457],[1530414708, 1530415922, 1530415853],[1530417492, 1530418014, 1530418534],[1530418959, 1530419484, 1530420011],[1530420649, 1530421183, 1530421717],[1530422217, 1530422730, 1530423243],[1530424294, 1530425072, 1530425253],[1530425492, 1530425974, 1530426457],[1530427833, 1530428063, 1530428294],[1530428716, 1530429143, 1530429381]],
"OrbitDrifts_X": [[-0.647073, -1.48694, -0.254821],[-0.0874422, 1.09755, 0.891539],[-0.137554, 0.679284, -0.665922],[0.157522, 0.705717, 0.257394],[-0.207954, 0.967, 0.967],[0.0388805, -0.248587, -0.248587],[-0.0743562, 0.303889, -0.83933],[-1.14507, -1.77295, -1.77557],[0.317178, -0.957947, 1.39992],[2.00268, 2.06948, 2.26052],[2.45651, 2.65234, 1.62559],[0.474888, -1.27522, -1.04084],[-0.703063, -0.272651, 0.283597],[1.00245, 1.369, 1.369],[1.29342, 1.37213, 1.37213],[-0.00305967, -0.679241, -0.58289],[0.450513, 0.509848, 0.665518],[0.0465555, 1.15863, 0.309188],[0.32802, -0.178407, 0.620933],[-0.48568, 0.837028, 0.837028],[1.19675, 1.06518, 1.06518],[-0.55642, -0.877267, -0.217411],[-0.954227, -0.130077, -0.280219],[-0.185458, -0.787778, -0.403312],[-0.0186763, 0.801902, 1.24182],[0.440616, -0.481256, -0.237132],[0.139657, 0.375076, -0.828871],[0.0652011, -0.535998, -0.729612],[-1.04186, -1.09042, -0.871795]],
"OrbitDrifts_Y": [[-0.527782, -0.074932, -0.11345],[-0.460626, -1.33449, -1.08811],[-1.00004, -1.09148, -0.67758],[-0.0448278, 0.169618, -0.128146],[-0.517018, -1.17699, -1.17699],[-0.139091, -0.185533, -0.185533],[1.10565, 1.78589, 1.13251],[0.931202, 1.63108, 0.971258],[0.336474, 0.587185, 0.241068],[-0.442556, -0.159699, -0.376414],[-0.0750818, -0.074559, -0.0530317],[-0.631601, -0.209846, 0.419272],[-0.639146, -0.623648, -0.115896],[0.535287, 1.6319, 1.6319],[1.43651, 1.67725, 1.67725],[1.10505, 0.826406, 0.607342],[0.608384, 1.6347, 0.42332],[0.00497283, 0.14575, 0.685202],[1.08044, 1.60802, 0.758745],[-0.496879, -0.406995, -0.406995],[-0.296758, 0.524907, 0.524907],[0.10759, -0.251511, 0.331449],[0.23081, -0.116681, 0.163867],[0.473947, 1.06007, 0.913296],[-0.880833, 0.08953, -1.03771],[1.339, 2.33955, 1.73283],[1.83459, 1.09731, 0.989655],[0.103686, 0.451851, 0.164995],[0.3999, 1.87971, 0.760762]]
}
